<?xml version="1.0" encoding="utf-8"?>
<!-- Generator: Adobe Illustrator 23.1.0, SVG Export Plug-In . SVG Version: 6.00 Build 0)  -->
<svg version="1.1" id="Слой_1" 
	xmlns="http://www.w3.org/2000/svg" 
	xmlns:xlink="http://www.w3.org/1999/xlink" x="0px" y="0px" viewBox="0 0 886 50" height="50px" style="enable-background:new 0 0 886 50;" xml:space="preserve">
	<style type="text/css">
	.st0{fill:none;}
	.st1{fill-rule:evenodd;clip-rule:evenodd;fill:#6790AC;}
	.st2{fill:none;stroke:#6790AC;stroke-width:2;}
	.st3{fill:#DEE2ED;stroke:#6790AC;stroke-width:2;}
	</style>
	<rect id="_R_BG" x="0" y="0" class="st0" width="886" height="50"/>
	<path id="_3L" class="st1" d="M0,41l0-1h886v1H0z"/>
	<path id="_2L3" class="st1" d="M0,36l0-1h279v1H0z"/>
	<path id="_2L2" class="st1" d="M279,36v-1l18-14v1L279,36z"/>
	<path id="_2L1" class="st1" d="M297,22v-1h123v1H297z"/>
	<circle id="_2E" class="st2" cx="423.5" cy="21.5" r="3.5"/>
	<circle id="_2E_1_" class="st3" cx="601.5" cy="40.5" r="3.5"/>
	<path id="_1L3" class="st1" d="M0,31l0-1h277v1H0z"/>
	<path id="_1L2" class="st1" d="M277,31v-1l18-14v1L277,31z"/>
	<path id="_1L1" class="st1" d="M295,17v-1h64v1H295z"/>
	<circle id="_1E" class="st2" cx="362.5" cy="16.5" r="3.5"/>
</svg>
